-- Merging decision tree log ---
manifest
ADDED from C:\Bachelor_Workplace\UntersuchungsApps\Kamera\Camera2ApiGoogle\android-Camera2Video\Application\src\main\AndroidManifest.xml:17:1-43:12
INJECTED from C:\Bachelor_Workplace\UntersuchungsApps\Kamera\Camera2ApiGoogle\android-Camera2Video\Application\src\main\AndroidManifest.xml:17:1-43:12
INJECTED from C:\Bachelor_Workplace\UntersuchungsApps\Kamera\Camera2ApiGoogle\android-Camera2Video\Application\src\main\AndroidManifest.xml:17:1-43:12
MERGED from [com.android.support:support-v13:27.0.2] C:\Users\Michu\.gradle\caches\transforms-1\files-1.1\support-v13-27.0.2.aar\0e9b4e039793e7d3eaf0471801c565fc\AndroidManifest.xml:17:1-22:12
MERGED from [com.android.support:support-v4:27.0.2] C:\Users\Michu\.gradle\caches\transforms-1\files-1.1\support-v4-27.0.2.aar\bf1dc0a1a8f544e4ba3381b51bd8d409\AndroidManifest.xml:17:1-22:12
MERGED from [com.android.support:cardview-v7:27.0.2] C:\Users\Michu\.gradle\caches\transforms-1\files-1.1\cardview-v7-27.0.2.aar\f47e36232e5385cfe070ddcc37628e4e\AndroidManifest.xml:17:1-22:12
MERGED from [com.android.support:appcompat-v7:27.0.2] C:\Users\Michu\.gradle\caches\transforms-1\files-1.1\appcompat-v7-27.0.2.aar\b07cca371475a63e66f362e71c98327c\AndroidManifest.xml:17:1-22:12
MERGED from [com.android.support:support-media-compat:27.0.2] C:\Users\Michu\.gradle\caches\transforms-1\files-1.1\support-media-compat-27.0.2.aar\79f767b0aa6c64d4f888f9eb9b3dc2a5\AndroidManifest.xml:17:1-22:12
MERGED from [com.android.support:support-fragment:27.0.2] C:\Users\Michu\.gradle\caches\transforms-1\files-1.1\support-fragment-27.0.2.aar\721bd93835225b1cd718eaa8a5e99223\AndroidManifest.xml:17:1-22:12
MERGED from [com.android.support:support-core-utils:27.0.2] C:\Users\Michu\.gradle\caches\transforms-1\files-1.1\support-core-utils-27.0.2.aar\d587b1c8d9d2bff344b2be32173d8a9a\AndroidManifest.xml:17:1-22:12
MERGED from [com.android.support:animated-vector-drawable:27.0.2] C:\Users\Michu\.gradle\caches\transforms-1\files-1.1\animated-vector-drawable-27.0.2.aar\c9df21c8fc8f1b1c1490c5c03319237e\AndroidManifest.xml:17:1-22:12
MERGED from [com.android.support:support-core-ui:27.0.2] C:\Users\Michu\.gradle\caches\transforms-1\files-1.1\support-core-ui-27.0.2.aar\6c1e2355f26a308b97c4db9fe827ac6b\AndroidManifest.xml:17:1-22:12
MERGED from [com.android.support:support-vector-drawable:27.0.2] C:\Users\Michu\.gradle\caches\transforms-1\files-1.1\support-vector-drawable-27.0.2.aar\a0df27c071e40c315eae2e076c299f81\AndroidManifest.xml:17:1-22:12
MERGED from [com.android.support:support-compat:27.0.2] C:\Users\Michu\.gradle\caches\transforms-1\files-1.1\support-compat-27.0.2.aar\5a5d8d0d2c6b25cd60baa530f66a6214\AndroidManifest.xml:17:1-22:12
MERGED from [android.arch.lifecycle:runtime:1.0.3] C:\Users\Michu\.gradle\caches\transforms-1\files-1.1\runtime-1.0.3.aar\2afb60d0a9940c838079f08405457b91\AndroidManifest.xml:17:1-24:12
INJECTED from C:\Bachelor_Workplace\UntersuchungsApps\Kamera\Camera2ApiGoogle\android-Camera2Video\Application\src\main\AndroidManifest.xml:17:1-43:12
INJECTED from C:\Bachelor_Workplace\UntersuchungsApps\Kamera\Camera2ApiGoogle\android-Camera2Video\Application\src\main\AndroidManifest.xml:17:1-43:12
	package
		ADDED from C:\Bachelor_Workplace\UntersuchungsApps\Kamera\Camera2ApiGoogle\android-Camera2Video\Application\src\main\AndroidManifest.xml:18:5-47
	android:versionName
		ADDED from C:\Bachelor_Workplace\UntersuchungsApps\Kamera\Camera2ApiGoogle\android-Camera2Video\Application\src\main\AndroidManifest.xml:20:5-30
		INJECTED from C:\Bachelor_Workplace\UntersuchungsApps\Kamera\Camera2ApiGoogle\android-Camera2Video\Application\src\main\AndroidManifest.xml
		INJECTED from C:\Bachelor_Workplace\UntersuchungsApps\Kamera\Camera2ApiGoogle\android-Camera2Video\Application\src\main\AndroidManifest.xml
	xmlns:android
		ADDED from C:\Bachelor_Workplace\UntersuchungsApps\Kamera\Camera2ApiGoogle\android-Camera2Video\Application\src\main\AndroidManifest.xml:17:11-69
	android:versionCode
		ADDED from C:\Bachelor_Workplace\UntersuchungsApps\Kamera\Camera2ApiGoogle\android-Camera2Video\Application\src\main\AndroidManifest.xml:19:5-28
		INJECTED from C:\Bachelor_Workplace\UntersuchungsApps\Kamera\Camera2ApiGoogle\android-Camera2Video\Application\src\main\AndroidManifest.xml
		INJECTED from C:\Bachelor_Workplace\UntersuchungsApps\Kamera\Camera2ApiGoogle\android-Camera2Video\Application\src\main\AndroidManifest.xml
uses-permission#android.permission.CAMERA
ADDED from C:\Bachelor_Workplace\UntersuchungsApps\Kamera\Camera2ApiGoogle\android-Camera2Video\Application\src\main\AndroidManifest.xml:24:5-64
	android:name
		ADDED from C:\Bachelor_Workplace\UntersuchungsApps\Kamera\Camera2ApiGoogle\android-Camera2Video\Application\src\main\AndroidManifest.xml:24:22-62
uses-permission#android.permission.RECORD_AUDIO
ADDED from C:\Bachelor_Workplace\UntersuchungsApps\Kamera\Camera2ApiGoogle\android-Camera2Video\Application\src\main\AndroidManifest.xml:25:5-70
	android:name
		ADDED from C:\Bachelor_Workplace\UntersuchungsApps\Kamera\Camera2ApiGoogle\android-Camera2Video\Application\src\main\AndroidManifest.xml:25:22-68
uses-permission#android.permission.WRITE_EXTERNAL_STORAGE
ADDED from C:\Bachelor_Workplace\UntersuchungsApps\Kamera\Camera2ApiGoogle\android-Camera2Video\Application\src\main\AndroidManifest.xml:26:5-80
	android:name
		ADDED from C:\Bachelor_Workplace\UntersuchungsApps\Kamera\Camera2ApiGoogle\android-Camera2Video\Application\src\main\AndroidManifest.xml:26:22-78
application
ADDED from C:\Bachelor_Workplace\UntersuchungsApps\Kamera\Camera2ApiGoogle\android-Camera2Video\Application\src\main\AndroidManifest.xml:28:5-41:19
	android:label
		ADDED from C:\Bachelor_Workplace\UntersuchungsApps\Kamera\Camera2ApiGoogle\android-Camera2Video\Application\src\main\AndroidManifest.xml:29:9-41
	android:icon
		ADDED from C:\Bachelor_Workplace\UntersuchungsApps\Kamera\Camera2ApiGoogle\android-Camera2Video\Application\src\main\AndroidManifest.xml:30:9-45
	android:allowBackup
		ADDED from C:\Bachelor_Workplace\UntersuchungsApps\Kamera\Camera2ApiGoogle\android-Camera2Video\Application\src\main\AndroidManifest.xml:28:18-44
	android:theme
		ADDED from C:\Bachelor_Workplace\UntersuchungsApps\Kamera\Camera2ApiGoogle\android-Camera2Video\Application\src\main\AndroidManifest.xml:31:9-45
activity#com.example.android.camera2video.CameraActivity
ADDED from C:\Bachelor_Workplace\UntersuchungsApps\Kamera\Camera2ApiGoogle\android-Camera2Video\Application\src\main\AndroidManifest.xml:33:9-39:20
	android:label
		ADDED from C:\Bachelor_Workplace\UntersuchungsApps\Kamera\Camera2ApiGoogle\android-Camera2Video\Application\src\main\AndroidManifest.xml:34:19-51
	android:name
		ADDED from C:\Bachelor_Workplace\UntersuchungsApps\Kamera\Camera2ApiGoogle\android-Camera2Video\Application\src\main\AndroidManifest.xml:33:19-49
intent-filter#action:name:android.intent.action.MAIN+category:name:android.intent.category.LAUNCHER
ADDED from C:\Bachelor_Workplace\UntersuchungsApps\Kamera\Camera2ApiGoogle\android-Camera2Video\Application\src\main\AndroidManifest.xml:35:13-38:29
action#android.intent.action.MAIN
ADDED from C:\Bachelor_Workplace\UntersuchungsApps\Kamera\Camera2ApiGoogle\android-Camera2Video\Application\src\main\AndroidManifest.xml:36:17-69
	android:name
		ADDED from C:\Bachelor_Workplace\UntersuchungsApps\Kamera\Camera2ApiGoogle\android-Camera2Video\Application\src\main\AndroidManifest.xml:36:25-66
category#android.intent.category.LAUNCHER
ADDED from C:\Bachelor_Workplace\UntersuchungsApps\Kamera\Camera2ApiGoogle\android-Camera2Video\Application\src\main\AndroidManifest.xml:37:17-77
	android:name
		ADDED from C:\Bachelor_Workplace\UntersuchungsApps\Kamera\Camera2ApiGoogle\android-Camera2Video\Application\src\main\AndroidManifest.xml:37:27-74
uses-sdk
INJECTED from C:\Bachelor_Workplace\UntersuchungsApps\Kamera\Camera2ApiGoogle\android-Camera2Video\Application\src\main\AndroidManifest.xml reason: use-sdk injection requested
INJECTED from C:\Bachelor_Workplace\UntersuchungsApps\Kamera\Camera2ApiGoogle\android-Camera2Video\Application\src\main\AndroidManifest.xml
INJECTED from C:\Bachelor_Workplace\UntersuchungsApps\Kamera\Camera2ApiGoogle\android-Camera2Video\Application\src\main\AndroidManifest.xml
MERGED from [com.android.support:support-v13:27.0.2] C:\Users\Michu\.gradle\caches\transforms-1\files-1.1\support-v13-27.0.2.aar\0e9b4e039793e7d3eaf0471801c565fc\AndroidManifest.xml:20:5-44
MERGED from [com.android.support:support-v13:27.0.2] C:\Users\Michu\.gradle\caches\transforms-1\files-1.1\support-v13-27.0.2.aar\0e9b4e039793e7d3eaf0471801c565fc\AndroidManifest.xml:20:5-44
MERGED from [com.android.support:support-v4:27.0.2] C:\Users\Michu\.gradle\caches\transforms-1\files-1.1\support-v4-27.0.2.aar\bf1dc0a1a8f544e4ba3381b51bd8d409\AndroidManifest.xml:20:5-44
MERGED from [com.android.support:support-v4:27.0.2] C:\Users\Michu\.gradle\caches\transforms-1\files-1.1\support-v4-27.0.2.aar\bf1dc0a1a8f544e4ba3381b51bd8d409\AndroidManifest.xml:20:5-44
MERGED from [com.android.support:cardview-v7:27.0.2] C:\Users\Michu\.gradle\caches\transforms-1\files-1.1\cardview-v7-27.0.2.aar\f47e36232e5385cfe070ddcc37628e4e\AndroidManifest.xml:20:5-44
MERGED from [com.android.support:cardview-v7:27.0.2] C:\Users\Michu\.gradle\caches\transforms-1\files-1.1\cardview-v7-27.0.2.aar\f47e36232e5385cfe070ddcc37628e4e\AndroidManifest.xml:20:5-44
MERGED from [com.android.support:appcompat-v7:27.0.2] C:\Users\Michu\.gradle\caches\transforms-1\files-1.1\appcompat-v7-27.0.2.aar\b07cca371475a63e66f362e71c98327c\AndroidManifest.xml:20:5-44
MERGED from [com.android.support:appcompat-v7:27.0.2] C:\Users\Michu\.gradle\caches\transforms-1\files-1.1\appcompat-v7-27.0.2.aar\b07cca371475a63e66f362e71c98327c\AndroidManifest.xml:20:5-44
MERGED from [com.android.support:support-media-compat:27.0.2] C:\Users\Michu\.gradle\caches\transforms-1\files-1.1\support-media-compat-27.0.2.aar\79f767b0aa6c64d4f888f9eb9b3dc2a5\AndroidManifest.xml:20:5-44
MERGED from [com.android.support:support-media-compat:27.0.2] C:\Users\Michu\.gradle\caches\transforms-1\files-1.1\support-media-compat-27.0.2.aar\79f767b0aa6c64d4f888f9eb9b3dc2a5\AndroidManifest.xml:20:5-44
MERGED from [com.android.support:support-fragment:27.0.2] C:\Users\Michu\.gradle\caches\transforms-1\files-1.1\support-fragment-27.0.2.aar\721bd93835225b1cd718eaa8a5e99223\AndroidManifest.xml:20:5-44
MERGED from [com.android.support:support-fragment:27.0.2] C:\Users\Michu\.gradle\caches\transforms-1\files-1.1\support-fragment-27.0.2.aar\721bd93835225b1cd718eaa8a5e99223\AndroidManifest.xml:20:5-44
MERGED from [com.android.support:support-core-utils:27.0.2] C:\Users\Michu\.gradle\caches\transforms-1\files-1.1\support-core-utils-27.0.2.aar\d587b1c8d9d2bff344b2be32173d8a9a\AndroidManifest.xml:20:5-44
MERGED from [com.android.support:support-core-utils:27.0.2] C:\Users\Michu\.gradle\caches\transforms-1\files-1.1\support-core-utils-27.0.2.aar\d587b1c8d9d2bff344b2be32173d8a9a\AndroidManifest.xml:20:5-44
MERGED from [com.android.support:animated-vector-drawable:27.0.2] C:\Users\Michu\.gradle\caches\transforms-1\files-1.1\animated-vector-drawable-27.0.2.aar\c9df21c8fc8f1b1c1490c5c03319237e\AndroidManifest.xml:20:5-44
MERGED from [com.android.support:animated-vector-drawable:27.0.2] C:\Users\Michu\.gradle\caches\transforms-1\files-1.1\animated-vector-drawable-27.0.2.aar\c9df21c8fc8f1b1c1490c5c03319237e\AndroidManifest.xml:20:5-44
MERGED from [com.android.support:support-core-ui:27.0.2] C:\Users\Michu\.gradle\caches\transforms-1\files-1.1\support-core-ui-27.0.2.aar\6c1e2355f26a308b97c4db9fe827ac6b\AndroidManifest.xml:20:5-44
MERGED from [com.android.support:support-core-ui:27.0.2] C:\Users\Michu\.gradle\caches\transforms-1\files-1.1\support-core-ui-27.0.2.aar\6c1e2355f26a308b97c4db9fe827ac6b\AndroidManifest.xml:20:5-44
MERGED from [com.android.support:support-vector-drawable:27.0.2] C:\Users\Michu\.gradle\caches\transforms-1\files-1.1\support-vector-drawable-27.0.2.aar\a0df27c071e40c315eae2e076c299f81\AndroidManifest.xml:20:5-44
MERGED from [com.android.support:support-vector-drawable:27.0.2] C:\Users\Michu\.gradle\caches\transforms-1\files-1.1\support-vector-drawable-27.0.2.aar\a0df27c071e40c315eae2e076c299f81\AndroidManifest.xml:20:5-44
MERGED from [com.android.support:support-compat:27.0.2] C:\Users\Michu\.gradle\caches\transforms-1\files-1.1\support-compat-27.0.2.aar\5a5d8d0d2c6b25cd60baa530f66a6214\AndroidManifest.xml:20:5-44
MERGED from [com.android.support:support-compat:27.0.2] C:\Users\Michu\.gradle\caches\transforms-1\files-1.1\support-compat-27.0.2.aar\5a5d8d0d2c6b25cd60baa530f66a6214\AndroidManifest.xml:20:5-44
MERGED from [android.arch.lifecycle:runtime:1.0.3] C:\Users\Michu\.gradle\caches\transforms-1\files-1.1\runtime-1.0.3.aar\2afb60d0a9940c838079f08405457b91\AndroidManifest.xml:20:5-22:41
MERGED from [android.arch.lifecycle:runtime:1.0.3] C:\Users\Michu\.gradle\caches\transforms-1\files-1.1\runtime-1.0.3.aar\2afb60d0a9940c838079f08405457b91\AndroidManifest.xml:20:5-22:41
INJECTED from C:\Bachelor_Workplace\UntersuchungsApps\Kamera\Camera2ApiGoogle\android-Camera2Video\Application\src\main\AndroidManifest.xml
INJECTED from C:\Bachelor_Workplace\UntersuchungsApps\Kamera\Camera2ApiGoogle\android-Camera2Video\Application\src\main\AndroidManifest.xml
	android:targetSdkVersion
		INJECTED from C:\Bachelor_Workplace\UntersuchungsApps\Kamera\Camera2ApiGoogle\android-Camera2Video\Application\src\main\AndroidManifest.xml
		ADDED from C:\Bachelor_Workplace\UntersuchungsApps\Kamera\Camera2ApiGoogle\android-Camera2Video\Application\src\main\AndroidManifest.xml
		INJECTED from C:\Bachelor_Workplace\UntersuchungsApps\Kamera\Camera2ApiGoogle\android-Camera2Video\Application\src\main\AndroidManifest.xml
	android:minSdkVersion
		INJECTED from C:\Bachelor_Workplace\UntersuchungsApps\Kamera\Camera2ApiGoogle\android-Camera2Video\Application\src\main\AndroidManifest.xml
		ADDED from C:\Bachelor_Workplace\UntersuchungsApps\Kamera\Camera2ApiGoogle\android-Camera2Video\Application\src\main\AndroidManifest.xml
		INJECTED from C:\Bachelor_Workplace\UntersuchungsApps\Kamera\Camera2ApiGoogle\android-Camera2Video\Application\src\main\AndroidManifest.xml
